{
    "$schema": "http://schema.management.azure.com/schemas/2015-01-01/deploymentTemplate.json#",
    "contentVersion": "1.0.0.0",
    "parameters": { 
        "location": {
            "type": "string",
            "defaultValue": "northeurope",
            "allowedValues": [
                "eastus",
                "eastus2",
                "northcentralus",
                "southcentralus",
                "westus",
                "northeurope",
                "westeurope"
            ],
            "metadata": {
                "description": "Deployment location"
            }
        },
        "sqlDWDBAdminName": {
            "type": "string",
            "metadata": {
                "description": "SQL Datawarehouse Admin Username"
            }
        },
        "sqlDWAdminPassword": {
            "type": "securestring",
            "metadata": {
                "description": "SQL Datawarehouse Admin password"
            }
        },
        "baseUrl": {
            "type": "string",
            "defaultValue": "https://bitbucket.org/ey_automation/arm_templates/raw/a104b06c7b38302a9b11e5c2460d578b02b850f8",
            "metadata": {
                "description": "Base URL for the reference templates and scripts"
            }
        }
     },
    "variables": { 
        "armBaseUrl": "[parameters('baseUrl')]",
        "sqlDWServName": "sqlser",
        "sqlDWDBName": "testdwdb",
        "serviceLevelObjective": "DW100",
        "startIpAddress": "0.0.0.0",
        "endIpAddress": "255.255.255.255",
        "sqlApiVersion": "2014-04-01",
        "sqldbApiVersion": "2015-05-01-preview",
        "sqlfirewallrulesApiVersion": "2014-04-01",
        "sqlDataWareHouseSetupURL": "[concat(variables('armBaseUrl'),'/nested/sqldatawarehouse.json')]",
        "sqldwlocation": "eastus",
        "collation": "SQL_Latin1_General_CP1_CI_AS",
        "maxSizeBytes": "10995116277760",
        "sqlVersion": "12.0",
        "sqlDWServerName": "[concat(variables('sqlDWServName'),uniqueString(resourceGroup().id))]"
     },
    "resources": [ 
        { 
            "name": "sqlDataWarehoueSetup",
            "apiVersion": "2015-01-01",
            "type": "Microsoft.Resources/deployments",
            "properties": {
                "mode": "Incremental",
                "templateLink": {
                    "uri": "[variables('sqlDataWareHouseSetupURL')]",
                    "contentVersion": "1.0.0.0"
                },
                "parameters": { 
                    "location": {
                        "value": "[variables('sqldwlocation')]"
                    },
                    "sqlDWServerName": {
                        "value": "[variables('sqlDWServerName')]"
                    },
                    "sqlDWDBAdminName": {
                        "value": "[parameters('sqlDWDBAdminName')]"
                    },
                    "sqlDWAdminPassword": {
                        "value": "[parameters('sqlDWAdminPassword')]"
                    },
                    "sqlDWDBName": {
                        "value": "[variables('sqlDWDBName')]"
                    },
                    "serviceLevelObjective": {
                        "value": "[variables('serviceLevelObjective')]"
                    },
                    "startIpAddress": {
                        "value": "[variables('startIpAddress')]"
                    },
                    "endIpAddress": {
                        "value": "[variables('endIpAddress')]"
                    },
                    "sql-api-version": {
                        "value": "[variables('sqlApiVersion')]"
                    },
                    "sqldb-api-version": {
                        "value": "[variables('sqldbApiVersion')]"
                    },
                    "sqlfirewallrules-api-version": {
                        "value": "[variables('sqlfirewallrulesApiVersion')]"
                    },
                    "collation": {
                        "value": "[variables('collation')]"
                    },
                    "maxSizeBytes": {
                        "value": "[variables('maxSizeBytes')]"
                    },
                    "version": {
                        "value": "[variables('sqlVersion')]"
                    }
                } 
            }
        }
    ]
}